◎ 片名: 每况愈下 Downhill

◎ 导演: 奈特·法松 / 吉姆·拉什

◎ 编剧: 杰西·阿姆斯特朗 / 奈特·法松 / 吉姆·拉什 / 鲁本·奥斯特伦德

◎ 类型: 剧情 / 家庭

◎ 制片国家/地区: 美国

◎ 语言: 英语

◎ 上映日期: 2020-01-26(圣丹斯电影节) / 2020-02-14(美国)

◎ 片长: 86分钟

◎ 又名: 美版游客 / 婚姻大崩坏(台) / 不可抗力 / Force Majeure

◎ IMDB 链接： https://www.imdb.com/title/tt4558376

◎ 剧情: 
故事讲述在阿尔卑斯山滑雪佳地，一个家庭在就餐时遇到了雪崩，丈夫只顾自己逃命不救妻儿，引发了家庭危机。
 

◎ 豆瓣链接 (6.1): https://movie.douban.com/subject/26354577/

================ 资源 ================ 
https://drive.google.com/drive/u/0/folders/1TD4qKtY0Iwt7w1V53tBoA5d0FWpzyE0-

