◎ 片名: 人间失格：太宰治和三个女人们 人間失格 太宰治と3人の女たち

◎ 导演: 蜷川实花

◎ 编剧: 早船歌江子

◎ 类型: 剧情

◎ 官方网站: ningenshikkaku-movie.com

◎ 制片国家/地区: 日本

◎ 语言: 日语

◎ 上映日期: 2019-09-13(日本)

◎ 片长: 120分钟

◎ 又名: 人间失格 太宰与三个女人 / 人间失格：太宰治和他的女人 / No Longer Human / No Longer Human: Dazai Osamu and Three Women

◎ IMDB 链接： https://www.imdb.com/title/tt10065976

◎ 剧情: 
影片根据《人间失格》作者太宰治的真实生活改编，故事讲述太宰治(小栗旬饰)创作《人间失格》的过程，同时涉及太宰治和深爱他的三个女人。一位天才作家沉溺于酒色之中，最终和情人投河自尽，轰动文坛。
 

◎ 豆瓣链接 (6.3): https://douban.com/subject/30364976/

================ 资源 ================ 
1080p 中字

magnet:?xt=urn:btih:1304C13BCDC0A63A24D3501A3FFA18D86D6F8DF8

